Interfacing with other survival packages • ggbulksurv
…
df_survival <- run_bulksurv(dat, returnData = TRUE)
#> Joining with `by = join_by(x, condition, day, sex, status)`
#> call: formula = Surv(day, status) ~ condition
#> call: formula = Surv(day, status) ~ condition

class(df_survival)
#> [1] "list"
names(df_survival)
#> [1] "data"            "plot"            "median_survival" "logrank"        
#> [5] "pairwise"

head(df_survival)
#> $data
#> # A tibble: 150 × 5
#>        x condition   day sex   status
#>    <int> <fct>     <int> <chr>  <dbl>
#>  1     2 WT            1 M          0
#>  2     2 WT            1 M          1
#>  3     2 WT            1 M          1
#>  4    28 Drug1         1 M          1
#>  5    28 Drug1         1 M          1
#>  6    28 Drug1         1 M          1
#>  7    28 Drug1         1 M          1
#>  8    28 Drug1         1 M          1
#>  9     3 WT            2 M          1
#> 10    29 Drug1         2 M          1
#> # ℹ 140 more rows
…
